{"EmailSender": "builduser@zenoti.com",
  "EmailRecepients": ["suryat@zenoti.com","hrushikeshk@zenoti.com","krishnaba@zenoti.com"],
  "EmailSenderAlias": "Reports-Core",
  "EmailSenderpassword": "Y1o2R0tTJm57JUhQeSE5",
  "user_name" : "suryat@zenoti.com",
  "password" :  "TEBrc2htaTE0Mw=="
}
