{

        "@OrganizationId":"'c3df0f67-50d0-44e1-84d1-e5ee08af5625'",
        "@CenterId": "'cab7edd3-d8e8-4c27-a36b-8aa16b8dbb4f'",
        "@StartDate": "'2019-11-01 08:00:00'",
        "@EndDate": "'2019-12-30 07:59:59'",
        "@UserId": "'43f80fc1-a7df-4618-8a5e-6e6a07358492'"


}